NPS - Exploratory analysis in R - Text analysis
…
Just with this information we can try and find some word associations - which words are most closely associated with service

normalized_prob %>% 
  filter(word1 == "service") %>% 
  arrange(-p_together)

## # A tibble: 39 × 7
##    word1   word2         n         p     p1      p2 p_together
##    <chr>   <chr>     <dbl>     <dbl>  <dbl>   <dbl>      <dbl>
##  1 service service     718 0.000675  0.0116 0.0116       5.01 
##  2 service customer    336 0.000316  0.0116 0.00949      2.87 
##  3 service excellent    37 0.0000348 0.0116 0.00153      1.95 
##  4 service their        25 0.0000235 0.0116 0.00149      1.36 
##  5 service product      40 0.0000376 0.0116 0.00269      1.20 
##  6 service great       116 0.000109  0.0116 0.00833      1.13 
##  7 service good         48 0.0000451 0.0116 0.00369      1.05 
##  8 service your         49 0.0000460 0.0116 0.00398      0.997
##  9 service but          66 0.0000620 0.0116 0.00593      0.901
## 10 service get          25 0.0000235 0.0116 0.00257      0.787
## # ℹ 29 more rows

How about customer

normalized_prob %>% 
  filter(word1 == "customer") %>% 
  arrange(-p_together)

## # A tibble: 31 × 7
##    word1    word2         n         p      p1      p2 p_together
##    <chr>    <chr>     <dbl>     <dbl>   <dbl>   <dbl>      <dbl>
##  1 customer customer    588 0.000553  0.00949 0.00949      6.13 
##  2 customer service     336 0.000316  0.00949 0.0116       2.87 
##  3 customer by           22 0.0000207 0.00949 0.00108      2.02 
##  4 customer excellent    25 0.0000235 0.00949 0.00153      1.61 
##  5 customer support     109 0.000102  0.00949 0.00775      1.39 
##  6 customer great        78 0.0000733 0.00949 0.00833      0.927
##  7 customer good         31 0.0000291 0.00949 0.00369      0.832
##  8 customer very         43 0.0000404 0.00949 0.00556      0.766
##  9 customer friendly     24 0.0000226 0.00949 0.00369      0.644
## 10 customer and         208 0.000195  0.00949 0.0349       0.589
## # ℹ 21 more rows

How about the negative qualifier not

normalized_prob %>% 
  filter(word1 == "not") %>% 
  arrange(-p_together)

## # A tibble: 79 × 7
##    word1 word2        n         p      p1       p2 p_together
##    <chr> <chr>    <dbl>     <dbl>   <dbl>    <dbl>      <dbl>
##  1 not   not       1314 0.00123   0.00866 0.00866       16.4 
##  2 not   did         50 0.0000470 0.00866 0.000497      10.9 
##  3 not   sure        26 0.0000244 0.00866 0.000332       8.50
##  4 not   enough      23 0.0000216 0.00866 0.000332       7.52
##  5 not   does        56 0.0000526 0.00866 0.000829       7.33
##  6 not   fixed       26 0.0000244 0.00866 0.000415       6.80
##  7 not   flexible    27 0.0000254 0.00866 0.000497       5.89
##  8 not   i'm         32 0.0000301 0.00866 0.000663       5.23
##  9 not   may         23 0.0000216 0.00866 0.000497       5.01
## 10 not   perfect     41 0.0000385 0.00866 0.000912       4.88
## # ℹ 69 more rows
…
