NPS - Exploratory analysis in R
…
We will keep the categories in place to see how the sentiment correlates to the scores.
Let’s see how many comments we have from each category.

comments <- nps %>% 
  filter(!is.na(Comment)) %>% 
  select(cat, Comment) %>% 
  group_by(row_number(), cat) 

comments <- comments %>% ungroup()

Next we will use unnest_tokens from the tidytext package to tokenize the words while retaining the corresponding categories. We end up with about 24,000 words.

nps_words <- comments %>% unnest_tokens(word, Comment)
nps_words
## # A tibble: 24,460 × 3
##    cat      `row_number()` word      
##    <fct>             <int> <chr>     
##  1 Promoter              1 customer  
##  2 Promoter              1 service   
##  3 Promoter              2 intuitive 
##  4 Promoter              2 program   
##  5 Promoter              2 and       
##  6 Promoter              2 accessible
##  7 Promoter              2 support   
##  8 Promoter              3 easy      
##  9 Promoter              3 to        
## 10 Promoter              3 use       
## # ℹ 24,450 more rows

Our next step is to remove some common words that are not useful for analysis. These include pronouns, articles and other common words. The tidytext package already includes a wide range of these in the stop_words dataset.

We are left with about 2243 unique words with

nps_words <-  nps_words %>% anti_join(stop_words, by = c('word'))
nps_words %>% count(word, sort = TRUE)
## # A tibble: 2,244 × 2
##    word         n
##    <chr>    <int>
##  1 platform   353
##  2 service    280
##  3 customer   229
##  4 system     191
##  5 support    187
##  6 easy       155
##  7 ease       142
##  8 ticket      91
##  9 friendly    89
## 10 user        84
## # ℹ 2,234 more rows
…
Let’s try another lexicon. This one is called Bing and was produced by Bing Liu et al.
This classifies words with a label signifying positive or negative. Here is a sample of words from this lexicon.

get_sentiments("bing")
## # A tibble: 6,786 × 2
##    word        sentiment
##    <chr>       <chr>    
##  1 2-faces     negative 
##  2 abnormal    negative 
##  3 abolish     negative 
##  4 abominable  negative 
##  5 abominably  negative 
##  6 abominate   negative 
##  7 abomination negative 
##  8 abort       negative 
##  9 aborted     negative 
## 10 aborts      negative 
## # ℹ 6,776 more rows
…
ngrams

Ngrams are series of words in sequence; bigrams are two words together and trigrams are three.
Lets take a quick look at the bigrams in the comments to see what those phrases are.

comments %>% 
unnest_tokens(ngram, Comment, token = "ngrams", n = 2) %>%
count(ngram, sort = TRUE)
## # A tibble: 13,715 × 2
##    ngram                n
##    <chr>            <int>
##  1 customer service   165
##  2 ease of            134
##  3 to use             122
##  4 easy to            113
##  5 of use             110
##  6 of the              75
##  7 i have              71
##  8 the system          71
##  9 user friendly       69
## 10 it is               67
## # ℹ 13,705 more rows

In this case we have not removed the stop words, let’s try looking at the trigrams to see if those provide more meaning. These are phrases that have the word not prefixed.

comments %>% unnest_tokens(ngram, Comment, token = "ngrams", n = 3) %>% count(ngram, sort = TRUE) %>% filter(str_detect(ngram, '^not '))
## # A tibble: 182 × 2
##    ngram                      n
##    <chr>                  <int>
##  1 not a 10                   3
##  2 not been fixed             3
##  3 not being able             3
##  4 not able to                2
##  5 not as flexible            2
##  6 not been as                2
##  7 not flexible enough        2
##  8 not give a                 2
##  9 not handle the             2
## 10 not recommend platform     2
## # ℹ 172 more rows
…
Try to extract the topic or subject of the text using LDA (Latent Dirichlet allocation )

The statsitic tf-idf measures how important a term is to a document in a collection of documents. So in our context we are trying to see if a term/word has special meaning in one respondent’s comments in relation to all other comments.

We will use the bind_tf_idf function to extract the statistic and sort based on the relative importance.

nps_tf_idf <- comments %>% 
  unnest_tokens(word,Comment) %>% 
  count(cat, word, sort = TRUE) %>% 
  ungroup() %>% 
  bind_tf_idf(word, cat, n) %>% 
  arrange(desc(tf_idf))

nps_tf_idf
## # A tibble: 4,485 × 6
##    cat       word                n       tf   idf   tf_idf
##    <fct>     <chr>           <int>    <dbl> <dbl>    <dbl>
##  1 Detractor lack               24 0.00258  0.405 0.00105 
##  2 Promoter  reasonable          7 0.000843 1.10  0.000926
##  3 Passive   smith               5 0.000730 1.10  0.000801
##  4 Passive   under               5 0.000730 1.10  0.000801
##  5 Detractor contract            6 0.000645 1.10  0.000708
##  6 Detractor income              6 0.000645 1.10  0.000708
##  7 Detractor won't               6 0.000645 1.10  0.000708
##  8 Promoter  professionalism     5 0.000602 1.10  0.000662
##  9 Promoter  respond             5 0.000602 1.10  0.000662
## 10 Passive   part                4 0.000584 1.10  0.000641
## # ℹ 4,475 more rows
…
This shows some proper nouns and pronouns, which is to be expected as only few comments would have those relative to the others.

TF-IDF with bigrams

As a variation on this - let’s repeat this with bigrams to see if certain phrases are more important.

nps_tf_idf_bigram <- comments %>% 
  unnest_tokens(ngram,Comment, token = "ngrams", n = 2) %>% 
  count(cat, ngram, sort = TRUE) %>% 
  ungroup() %>% 
  bind_tf_idf(ngram, cat, n) %>% 
  arrange(desc(tf_idf))

nps_tf_idf_bigram
## # A tibble: 16,174 × 6
##    cat       ngram              n       tf   idf   tf_idf
##    <fct>     <chr>          <int>    <dbl> <dbl>    <dbl>
##  1 Promoter  great customer    43 0.00557  0.405 0.00226 
##  2 Detractor lack of           24 0.00265  0.405 0.00107 
##  3 Promoter  friendly great     7 0.000907 1.10  0.000997
##  4 Passive   would like        16 0.00243  0.405 0.000985
##  5 Promoter  the staff          6 0.000778 1.10  0.000854
##  6 Promoter  use great          6 0.000778 1.10  0.000854
##  7 Promoter  very easy          6 0.000778 1.10  0.000854
##  8 Detractor follow up          7 0.000773 1.10  0.000849
##  9 Promoter  great product     16 0.00207  0.405 0.000841
## 10 Passive   great but          5 0.000759 1.10  0.000834
## # ℹ 16,164 more rows
…
